<svg 
 xmlns="http://www.w3.org/2000/svg"
 xmlns:xlink="http://www.w3.org/1999/xlink"
 width="1600px" height="788px">
<defs>
<linearGradient id="PSgrad_0" x1="0%" x2="0%" y1="0%" y2="100%">
 <stop offset="0%" stop-color="rgb(255,69,0)" stop-opacity="1" />
  <stop offset="100%" stop-color="rgb(255,140,0)" stop-opacity="1" />
</linearGradient>

</defs>
<path fill-rule="evenodd"  fill="rgb(230, 230, 230)"
 d="M0.000,248.999 C0.000,248.999 254.330,32.973 590.000,140.999 C764.007,214.254 834.925,227.879 980.000,135.999 C1175.000,12.499 1369.000,-78.501 1600.000,99.998 L1600.000,787.999 L0.000,787.999 L0.000,248.999 Z"/>
<path fill="url(#PSgrad_0)"
 d="M0.000,248.999 C0.000,248.999 254.330,32.973 590.000,140.999 C764.007,214.254 834.925,227.879 980.000,135.999 C1175.000,12.499 1369.000,-78.501 1600.000,99.998 L1600.000,787.999 L0.000,787.999 L0.000,248.999 Z"/>
</svg>